[gd_scene load_steps=3 format=2]

[ext_resource path="res://Conditions/condition.tscn" type="PackedScene" id=1]
[ext_resource path="res://Conditions/satellite_dynamic_condition.gd" type="Script" id=2]

[node name="root_satellite_dynamic_condition" instance=ExtResource( 1 )]
script = ExtResource( 2 )
condition_type = "private_condition"
