[gd_scene load_steps=4 format=2]

[ext_resource path="res://Conditions/condition.tscn" type="PackedScene" id=1]
[ext_resource path="res://Conditions/solar_condition.gd" type="Script" id=2]
[ext_resource path="res://Assets/GUI/charHUD_solar_icon.png" type="Texture" id=3]

[node name="root_solar_condition" instance=ExtResource( 1 )]
script = ExtResource( 2 )
proper_name = "Solar"
condition_icon = ExtResource( 3 )
