[gd_scene load_steps=3 format=2]

[ext_resource path="res://Conditions/condition.tscn" type="PackedScene" id=1]
[ext_resource path="res://Conditions/spectrum_shatter_condition.gd" type="Script" id=2]

[node name="root_spectrum_shatter_condition" instance=ExtResource( 1 )]
script = ExtResource( 2 )
condition_type = "static_condition"
