[gd_scene load_steps=4 format=2]

[ext_resource path="res://Global/Menus/CharacterMenus/SkillTree/spell_video.tscn" type="PackedScene" id=1]
[ext_resource path="res://Global/Menus/CharacterMenus/SkillTree/SkillVideos/accelerate_1_video.gd" type="Script" id=2]
[ext_resource path="res://Units/placeholder_unit.tscn" type="PackedScene" id=3]

[node name="root_accelerate_1_video" instance=ExtResource( 1 )]
script = ExtResource( 2 )
placeholder_unit = true

[node name="placeholder" parent="objects/player_units" index="0" instance=ExtResource( 3 )]
position = Vector2( 161, 88 )
