[gd_scene load_steps=5 format=2]

[ext_resource path="res://Global/Menus/CharacterMenus/SkillTree/spell_video.tscn" type="PackedScene" id=1]
[ext_resource path="res://Units/placeholder_unit.tscn" type="PackedScene" id=2]
[ext_resource path="res://Global/Menus/CharacterMenus/SkillTree/SkillVideos/blind_2_video.gd" type="Script" id=3]
[ext_resource path="res://Units/Enemies/captor.tscn" type="PackedScene" id=4]

[node name="root_blind_2_video" instance=ExtResource( 1 )]
script = ExtResource( 3 )
placeholder_unit = true

[node name="placeholder" parent="objects/player_units" index="0" instance=ExtResource( 2 )]
position = Vector2( 138, 80 )

[node name="captor" parent="objects/enemy_units" index="0" groups=["EnemyUnits"] instance=ExtResource( 4 )]
position = Vector2( 184, 96 )
