[gd_scene load_steps=6 format=2]

[ext_resource path="res://Global/Menus/CharacterMenus/SkillTree/spell_video.tscn" type="PackedScene" id=1]
[ext_resource path="res://Global/Menus/CharacterMenus/SkillTree/SkillVideos/disperse_4_video.gd" type="Script" id=2]
[ext_resource path="res://Units/placeholder_unit.tscn" type="PackedScene" id=3]
[ext_resource path="res://Units/Enemies/captor.tscn" type="PackedScene" id=5]
[ext_resource path="res://Global/Tiles/Obstacles/bush.tscn" type="PackedScene" id=6]

[node name="root_disperse_4_video" instance=ExtResource( 1 )]
script = ExtResource( 2 )
placeholder_unit = true
aux_skill = "disperse_4"

[node name="placeholder" parent="objects/player_units" index="0" instance=ExtResource( 3 )]
position = Vector2( 138, 80 )

[node name="captor" parent="objects/enemy_units" index="0" groups=["EnemyUnits"] instance=ExtResource( 5 )]
position = Vector2( 207, 104 )

[node name="bush" parent="objects/obstacles" index="1" instance=ExtResource( 6 )]
position = Vector2( 115, 104 )
