[gd_scene load_steps=6 format=2]

[ext_resource path="res://Global/Menus/CharacterMenus/SkillTree/spell_video.tscn" type="PackedScene" id=1]
[ext_resource path="res://Global/Menus/CharacterMenus/SkillTree/SkillVideos/field_fluctuation_video.gd" type="Script" id=2]
[ext_resource path="res://Units/placeholder_unit.tscn" type="PackedScene" id=3]
[ext_resource path="res://Units/Characters/grace.tscn" type="PackedScene" id=4]
[ext_resource path="res://Units/Enemies/captor.tscn" type="PackedScene" id=5]

[node name="root_field_fluctuation_video" instance=ExtResource( 1 )]
script = ExtResource( 2 )
placeholder_unit = true
aux_skill = "field_fluctuation"

[node name="placeholder" parent="objects/player_units" index="0" instance=ExtResource( 3 )]
position = Vector2( 138, 80 )

[node name="grace" parent="objects/player_units" index="1" instance=ExtResource( 4 )]
position = Vector2( 207, 88 )

[node name="captor" parent="objects/enemy_units" index="0" instance=ExtResource( 5 )]
position = Vector2( 161, 88 )
