[gd_scene load_steps=5 format=2]

[ext_resource path="res://Global/Menus/CharacterMenus/SkillTree/spell_video.tscn" type="PackedScene" id=1]
[ext_resource path="res://Global/Menus/CharacterMenus/SkillTree/SkillVideos/movement_1_video.gd" type="Script" id=2]
[ext_resource path="res://Units/placeholder_unit.tscn" type="PackedScene" id=3]
[ext_resource path="res://Global/Tiles/Obstacles/bush.tscn" type="PackedScene" id=4]

[node name="root_movement_1_video" instance=ExtResource( 1 )]
script = ExtResource( 2 )
placeholder_unit = true
aux_skill = "movement_1"

[node name="placeholder" parent="objects/player_units" index="0" instance=ExtResource( 3 )]
position = Vector2( 115, 72 )

[node name="bush" parent="objects/obstacles" index="1" instance=ExtResource( 4 )]
position = Vector2( 115, 56 )

[node name="bush2" parent="objects/obstacles" index="2" instance=ExtResource( 4 )]
position = Vector2( 138, 64 )

[node name="bush3" parent="objects/obstacles" index="3" instance=ExtResource( 4 )]
position = Vector2( 161, 72 )

[node name="bush4" parent="objects/obstacles" index="4" instance=ExtResource( 4 )]
position = Vector2( 184, 80 )

[node name="bush5" parent="objects/obstacles" index="5" instance=ExtResource( 4 )]
position = Vector2( 92, 48 )

[node name="bush6" parent="objects/obstacles" index="6" instance=ExtResource( 4 )]
position = Vector2( 69, 40 )
