[gd_scene load_steps=6 format=2]

[ext_resource path="res://Units/Characters/grace.tscn" type="PackedScene" id=1]
[ext_resource path="res://Global/Menus/CharacterMenus/SkillTree/spell_video.tscn" type="PackedScene" id=2]
[ext_resource path="res://Units/Enemies/fil.tscn" type="PackedScene" id=3]
[ext_resource path="res://Units/Enemies/captor.tscn" type="PackedScene" id=4]
[ext_resource path="res://Global/Menus/CharacterMenus/SkillTree/SkillVideos/natural_refraction_video.gd" type="Script" id=5]

[node name="root_natural_refraction_video" instance=ExtResource( 2 )]
script = ExtResource( 5 )

[node name="grace" parent="objects/player_units" index="0" instance=ExtResource( 1 )]
position = Vector2( 138, 80 )

[node name="captor" parent="objects/enemy_units" index="0" instance=ExtResource( 4 )]
position = Vector2( 184, 96 )

[node name="fil" parent="objects/enemy_units" index="1" instance=ExtResource( 3 )]
position = Vector2( 161, 104 )
