[gd_scene load_steps=5 format=2]

[ext_resource path="res://Global/Menus/CharacterMenus/SkillTree/SkillVideos/parallel_coherence_1_video.gd" type="Script" id=1]
[ext_resource path="res://Global/Menus/CharacterMenus/SkillTree/spell_video.tscn" type="PackedScene" id=2]
[ext_resource path="res://Units/Characters/grace.tscn" type="PackedScene" id=3]
[ext_resource path="res://Units/placeholder_unit.tscn" type="PackedScene" id=4]

[node name="root_parallel_coherence_1_video" instance=ExtResource( 2 )]
script = ExtResource( 1 )
placeholder_unit = true

[node name="placeholder" parent="objects/player_units" index="0" instance=ExtResource( 4 )]
position = Vector2( 138, 80 )

[node name="grace" parent="objects/player_units" index="1" instance=ExtResource( 3 )]
position = Vector2( 207, 88 )
