[gd_scene load_steps=6 format=2]

[ext_resource path="res://Global/Menus/CharacterMenus/SkillTree/spell_video.tscn" type="PackedScene" id=1]
[ext_resource path="res://Units/Characters/acacius.tscn" type="PackedScene" id=2]
[ext_resource path="res://Global/Menus/CharacterMenus/SkillTree/SkillVideos/relay_video.gd" type="Script" id=3]
[ext_resource path="res://Units/Enemies/captor.tscn" type="PackedScene" id=4]
[ext_resource path="res://Units/Characters/illiana.tscn" type="PackedScene" id=5]

[node name="root_relay_video" instance=ExtResource( 1 )]
script = ExtResource( 3 )

[node name="acacius" parent="objects/player_units" index="0" instance=ExtResource( 2 )]
position = Vector2( 115, 88 )

[node name="illiana" parent="objects/player_units" index="1" instance=ExtResource( 5 )]
position = Vector2( 184, 80 )

[node name="captor" parent="objects/enemy_units" index="0" instance=ExtResource( 4 )]
position = Vector2( 207, 104 )
