[gd_scene load_steps=3 format=2]

[ext_resource path="res://Items/item.tscn" type="PackedScene" id=1]
[ext_resource path="res://Items/potion_of_healing_1.gd" type="Script" id=2]

[node name="root_potion_of_healing_1" instance=ExtResource( 1 )]
script = ExtResource( 2 )
item_name = "Potion of Healing I"
target_type = "player_unit"
target_behavior = "single_target"
