[gd_scene load_steps=3 format=2]

[ext_resource path="res://Assets/GUI/action_info_icon.png" type="Texture" id=1]
[ext_resource path="res://Global/Menus/Buttons/action_button.tscn" type="PackedScene" id=2]

[node name="root_info_button" instance=ExtResource( 2 )]

[node name="button" parent="." index="0"]
margin_right = 16.0
margin_bottom = 16.0
texture_normal = ExtResource( 1 )
