[gd_scene load_steps=6 format=2]

[ext_resource path="res://Assets/Fonts/font.ttf" type="DynamicFontData" id=1]
[ext_resource path="res://Assets/GUI/menu_inventory_hover_bar.png" type="Texture" id=2]
[ext_resource path="res://Global/Menus/UIMenus/inventory_item.gd" type="Script" id=3]
[ext_resource path="res://Assets/GUI/menu_inventory_slot.png" type="Texture" id=4]

[sub_resource type="DynamicFont" id=1]
font_data = ExtResource( 1 )

[node name="root_inventory_item" type="Node2D"]
script = ExtResource( 3 )

[node name="box" type="Sprite" parent="."]
use_parent_material = true
texture = ExtResource( 4 )
centered = false

[node name="name_label" type="Label" parent="."]
use_parent_material = true
margin_left = 2.0
margin_top = -3.0
margin_right = 45.0
margin_bottom = 11.0
custom_colors/font_color = Color( 0, 0, 0, 1 )
custom_fonts/font = SubResource( 1 )
text = "cringe"

[node name="owner_label" type="Label" parent="."]
use_parent_material = true
margin_left = 130.0
margin_top = -3.0
margin_right = 173.0
margin_bottom = 11.0
custom_colors/font_color = Color( 0, 0, 0, 1 )
custom_fonts/font = SubResource( 1 )
text = "null"

[node name="button" type="TextureButton" parent="."]
use_parent_material = true
margin_right = 88.0
margin_bottom = 11.0
texture_hover = ExtResource( 2 )

[node name="equipped_button" type="TextureButton" parent="."]
margin_left = 128.0
margin_right = 255.0
margin_bottom = 11.0
rect_scale = Vector2( 0.385, 1 )
texture_hover = ExtResource( 2 )
