[gd_scene load_steps=4 format=2]

[ext_resource path="res://Global/Menus/Dialog/dialog.tscn" type="PackedScene" id=1]
[ext_resource path="res://Global/Levels/outside_storehouse.tscn" type="PackedScene" id=2]
[ext_resource path="res://Global/Menus/Dialog/Level_5/dialog_level_5_1.gd" type="Script" id=4]

[node name="root_dialog_level_5_1" instance=ExtResource( 1 )]
script = ExtResource( 4 )

[node name="level" parent="." index="0" instance=ExtResource( 2 )]
