[gd_scene load_steps=9 format=2]

[ext_resource path="res://Global/Levels/office.tscn" type="PackedScene" id=1]
[ext_resource path="res://Global/Menus/Dialog/dialog.tscn" type="PackedScene" id=2]
[ext_resource path="res://Units/Characters/seth.tscn" type="PackedScene" id=3]
[ext_resource path="res://Units/Characters/acacius.tscn" type="PackedScene" id=4]
[ext_resource path="res://Units/Characters/cherry_casual.tscn" type="PackedScene" id=5]
[ext_resource path="res://Units/Characters/grace_work_casual.tscn" type="PackedScene" id=6]
[ext_resource path="res://Units/Characters/illiana_casual.tscn" type="PackedScene" id=7]
[ext_resource path="res://Global/Menus/Dialog/Level_9/dialog_level_9_1.gd" type="Script" id=8]

[node name="root_dialog_level_9_1" instance=ExtResource( 2 )]
script = ExtResource( 8 )
__meta__ = {
"_edit_horizontal_guides_": [  ]
}

[node name="level" parent="." index="10" instance=ExtResource( 1 )]
z_index = -4

[node name="grace" parent="level/objects/player_units" index="0" instance=ExtResource( 6 )]
position = Vector2( 161, 136 )

[node name="illiana" parent="level/objects/player_units" index="1" instance=ExtResource( 7 )]
position = Vector2( 115, 120 )

[node name="seth" parent="level/objects/player_units" index="2" instance=ExtResource( 3 )]
position = Vector2( 138, 112 )

[node name="acacius" parent="level/objects/player_units" index="3" instance=ExtResource( 4 )]
position = Vector2( 92, 144 )
z_index = 1

[node name="cherry" parent="level/objects/player_units" index="4" instance=ExtResource( 5 )]
position = Vector2( 115, 152 )

[editable path="level"]
[editable path="level/hex_grid/root_carpet_half_vert_cell2"]
[editable path="level/hex_grid/root_carpet_half_vert_cell11"]
[editable path="level/hex_grid/root_carpet_half_vert_cell3"]
[editable path="level/hex_grid/root_carpet_half_vert_cell4"]
[editable path="level/hex_grid/root_carpet_half_vert_cell5"]
[editable path="level/hex_grid/root_carpet_half_vert_cell6"]
[editable path="level/objects/obstacles/root_desk2"]
[editable path="level/objects/obstacles/root_desk5"]
[editable path="level/objects/obstacles/root_bookshelf"]
