[gd_scene load_steps=4 format=2]

[ext_resource path="res://Global/Menus/Dialog/dialog.tscn" type="PackedScene" id=1]
[ext_resource path="res://Global/Menus/Dialog/Level_17/dialog_level_17_2.gd" type="Script" id=2]
[ext_resource path="res://Global/Levels/city_block_1.tscn" type="PackedScene" id=3]

[node name="root_dialog_level_17_2" instance=ExtResource( 1 )]
script = ExtResource( 2 )

[node name="level" parent="." index="10" instance=ExtResource( 3 )]
z_index = -4
