[gd_scene load_steps=3 format=2]

[ext_resource path="res://Assets/Tilesets/iso_tileset.png" type="Texture" id=1]
[ext_resource path="res://Global/Tiles/cell.tscn" type="PackedScene" id=2]

[node name="root_wood_cell" instance=ExtResource( 2 )]

[node name="sprite" parent="." index="0"]
texture = ExtResource( 1 )
region_rect = Rect2( 96, 7, 32, 25 )
