[gd_scene load_steps=6 format=2]

[ext_resource path="res://Global/Menus/Dialog/dialog.tscn" type="PackedScene" id=1]
[ext_resource path="res://Global/Levels/office.tscn" type="PackedScene" id=2]
[ext_resource path="res://Global/Menus/Dialog/Level_10/dialog_level_10_4.gd" type="Script" id=3]
[ext_resource path="res://Units/Characters/fia.tscn" type="PackedScene" id=4]
[ext_resource path="res://Units/Characters/illiana_casual.tscn" type="PackedScene" id=5]

[node name="root_dialog_level_10_4" instance=ExtResource( 1 )]
script = ExtResource( 3 )

[node name="level" parent="." index="10" instance=ExtResource( 2 )]
z_index = -4

[node name="fia" parent="level/objects/player_units" index="0" instance=ExtResource( 4 )]
position = Vector2( 207, 120 )

[node name="illiana" parent="level/objects/player_units" index="1" instance=ExtResource( 5 )]
position = Vector2( 161, 104 )

[editable path="level"]
[editable path="level/hex_grid/root_carpet_half_vert_cell2"]
[editable path="level/hex_grid/root_carpet_half_vert_cell11"]
[editable path="level/hex_grid/root_carpet_half_vert_cell3"]
[editable path="level/hex_grid/root_carpet_half_vert_cell4"]
[editable path="level/hex_grid/root_carpet_half_vert_cell5"]
[editable path="level/hex_grid/root_carpet_half_vert_cell6"]
[editable path="level/objects/obstacles/root_desk2"]
[editable path="level/objects/obstacles/root_desk5"]
[editable path="level/objects/obstacles/root_bookshelf"]
