[gd_scene load_steps=5 format=2]

[ext_resource path="res://Units/Enemies/celestial_mage.tscn" type="PackedScene" id=1]
[ext_resource path="res://Units/Enemies/celestial_mage_1.gd" type="Script" id=2]
[ext_resource path="res://Spells/stab.tscn" type="PackedScene" id=3]
[ext_resource path="res://Spells/starbind.tscn" type="PackedScene" id=4]

[node name="root_celestial_mage_1" instance=ExtResource( 1 )]
script = ExtResource( 2 )
skill_list = PoolStringArray( "health", "nucleosynthesis" )

[node name="stab" parent="." index="1" instance=ExtResource( 3 )]
visible = false

[node name="starbind" parent="." index="2" instance=ExtResource( 4 )]
visible = false
