[gd_scene load_steps=7 format=2]

[ext_resource path="res://Global/Levels/outside_office.tscn" type="PackedScene" id=1]
[ext_resource path="res://Global/Menus/Dialog/dialog.tscn" type="PackedScene" id=2]
[ext_resource path="res://Global/Menus/Dialog/Level_14/dialog_level_14_1.gd" type="Script" id=3]
[ext_resource path="res://Units/Characters/foo.tscn" type="PackedScene" id=4]
[ext_resource path="res://Units/Characters/acacius.tscn" type="PackedScene" id=5]
[ext_resource path="res://Units/Characters/grace_work_casual.tscn" type="PackedScene" id=6]

[node name="root_dialog_level_14_1" instance=ExtResource( 2 )]
script = ExtResource( 3 )

[node name="level" parent="." index="10" instance=ExtResource( 1 )]
z_index = -4

[node name="grace" parent="level/objects/player_units" index="0" instance=ExtResource( 6 )]
position = Vector2( 92, 80 )

[node name="foo" parent="level/objects/player_units" index="1" instance=ExtResource( 4 )]
position = Vector2( 69, 56 )

[node name="acacius" parent="level/objects/player_units" index="2" instance=ExtResource( 5 )]
position = Vector2( 161, 72 )

[editable path="level"]
