[gd_scene load_steps=4 format=2]

[ext_resource path="res://Global/Levels/level.tscn" type="PackedScene" id=1]
[ext_resource path="res://Global/Tiles/pavement_cell.tscn" type="PackedScene" id=2]
[ext_resource path="res://Global/Levels/level_13.gd" type="Script" id=3]

[node name="root_level_13" instance=ExtResource( 1 )]
script = ExtResource( 3 )

[node name="root_pavement_cell" parent="hex_grid" index="0" instance=ExtResource( 2 )]
