[gd_scene load_steps=3 format=2]

[ext_resource path="res://Global/Tiles/Obstacles/obstacle.tscn" type="PackedScene" id=1]
[ext_resource path="res://Assets/Tilesets/Obstacles/desk_acacius_foo.png" type="Texture" id=2]

[node name="root_desk_acacius_foo" instance=ExtResource( 1 )]

[node name="sprite" parent="." index="0"]
texture = ExtResource( 2 )
