[gd_scene load_steps=3 format=2]

[ext_resource path="res://Global/Tiles/Obstacles/obstacle.tscn" type="PackedScene" id=1]
[ext_resource path="res://Assets/Tilesets/Obstacles/door.png" type="Texture" id=2]

[node name="root_door" instance=ExtResource( 1 )]
traversal_cost = 99

[node name="sprite" parent="." index="0"]
texture = ExtResource( 2 )
