[gd_scene load_steps=5 format=2]

[ext_resource path="res://Assets/Tilesets/Obstacles/shelf.png" type="Texture" id=1]
[ext_resource path="res://Global/Tiles/Obstacles/obstacle.tscn" type="PackedScene" id=2]
[ext_resource path="res://Assets/Tilesets/NormalMaps/shelf_normal.png" type="Texture" id=3]

[sub_resource type="OccluderPolygon2D" id=1]
polygon = PoolVector2Array( 40, -29, 49, -21, 49, 4, 48, -1, 14, 10, 13, 15, 13, 8, 7, 2, 5, 7, 5, -21, 7, -19 )

[node name="root_shelf_flipped" instance=ExtResource( 2 )]
traversal_cost = 99
extra_tiles = PoolVector3Array( 1, -1, 0 )

[node name="occluder" type="LightOccluder2D" parent="." index="0"]
occluder = SubResource( 1 )

[node name="sprite" parent="." index="1"]
position = Vector2( -8, -7 )
texture = ExtResource( 1 )
normal_map = ExtResource( 3 )
flip_h = true
