[gd_scene load_steps=4 format=2]

[ext_resource path="res://Spells/spell.tscn" type="PackedScene" id=1]
[ext_resource path="res://Spells/epicycle.gd" type="Script" id=2]

[sub_resource type="SpriteFrames" id=1]
animations = [ {
"frames": [  ],
"loop": true,
"name": "cast",
"speed": 5.0
} ]

[node name="root_epicycle" instance=ExtResource( 1 )]
script = ExtResource( 2 )
proper_name = "Epicycle"
target_type = "unit"
target_behavior = "single_target"

[node name="sprite" parent="." index="0"]
frames = SubResource( 1 )
animation = "cast"
