[gd_scene load_steps=3 format=2]

[ext_resource path="res://Global/Menus/CharacterMenus/SkillTree/skill.gd" type="Script" id=1]
[ext_resource path="res://Assets/GUI/menu_thumbtack.png" type="Texture" id=2]

[node name="root_skill" type="Node2D"]
script = ExtResource( 1 )

[node name="button" type="TextureButton" parent="."]
margin_right = 16.0
margin_bottom = 16.0

[node name="thumbtack" type="Sprite" parent="."]
position = Vector2( 1, -7 )
z_index = 1
texture = ExtResource( 2 )
centered = false

[connection signal="mouse_entered" from="button" to="." method="_on_button_mouse_entered"]
[connection signal="mouse_exited" from="button" to="." method="_on_button_mouse_exited"]
[connection signal="pressed" from="button" to="." method="_on_button_pressed"]
