[gd_scene load_steps=4 format=2]

[ext_resource path="res://Assets/Fonts/font.ttf" type="DynamicFontData" id=1]
[ext_resource path="res://Global/Menus/CharacterMenus/SkillTree/tag.gd" type="Script" id=3]

[sub_resource type="DynamicFont" id=1]
font_data = ExtResource( 1 )

[node name="root_tag" type="Node2D"]
script = ExtResource( 3 )

[node name="sticky" type="ColorRect" parent="."]
margin_right = 30.0
margin_bottom = 13.0
color = Color( 0.972549, 0.843137, 0.458824, 1 )

[node name="label" type="Label" parent="."]
margin_right = 40.0
margin_bottom = 14.0
custom_colors/font_color = Color( 0, 0, 0, 1 )
custom_fonts/font = SubResource( 1 )
text = "sticky"

[node name="icon" type="Sprite" parent="."]
z_index = 1
centered = false
